<?xml version="1.0" encoding="utf-8"?>
<!-- Generator: Adobe Illustrator 21.1.0, SVG Export Plug-In . SVG Version: 6.00 Build 0)  -->
<svg version="1.1" id="Layer_1" xmlns="http://www.w3.org/2000/svg" xmlns:xlink="http://www.w3.org/1999/xlink" x="0px" y="0px"
	 viewBox="0 0 14 14" style="enable-background:new 0 0 14 14;" xml:space="preserve">
<style type="text/css">
	.cross-0{opacity:0.54;enable-background:new    ;}
</style>
<g id="Cross" transform="translate(2813 -1771)">
	<path id="Cross-Icon" class="cross-0" d="M-2807,1771v6h-6v2h6v6h2v-6h6v-2h-6v-6H-2807z"/>
</g>
</svg>
