<svg xmlns="http://www.w3.org/2000/svg" viewBox="2722 -1481 23.998 26.159">
  <defs>
    <style>
      .facebook-1 {
        fill: #fff;
      }
    </style>
  </defs>
  <path id="Facebook_9" data-name="Facebook 9" class="facebook-1" d="M0,0V26.159H24V0ZM14.549,13.079H12.9v6.54H10.424v-6.54h-1.2V10.79h1.2V9.319a2.5,2.5,0,0,1,2.55-2.779h1.875V8.747H13.5c-.225,0-.525.082-.525.654v1.39h1.875Z" transform="translate(2722 -1481)"/>
</svg>
