<svg xmlns="http://www.w3.org/2000/svg" viewBox="2794.002 -1481 23.998 26.159">
  <defs>
    <style>
      .linkedin-1 {
        fill: #fff;
      }
    </style>
  </defs>
  <path id="Linkedin_12" data-name="Linkedin 12" class="linkedin-1" d="M95.6,0V26.159h24V0Zm8.7,19.292h-2.55v-8.42h2.55Zm-1.275-9.564h0A1.379,1.379,0,0,1,101.6,8.256a1.422,1.422,0,0,1,1.425-1.471,1.379,1.379,0,0,1,1.425,1.471A1.339,1.339,0,0,1,103.024,9.728ZM113.6,19.292h-2.55V14.8c0-1.144-.375-1.88-1.275-1.88a1.488,1.488,0,0,0-1.35,1.063,1.727,1.727,0,0,0-.075.654v4.741H105.8v-8.42h2.55V12.18a2.6,2.6,0,0,1,2.325-1.39c1.725,0,2.925,1.226,2.925,3.76Z" transform="translate(2698.402 -1481)"/>
</svg>
