[
   {
      "order": "1",
      "question": "CAA Bravo",
      "answer":"This is answer one."
   },
   {
      "order": "2",
      "question": "CAA Delta",
      "answer":"This is ANSWER two."
   },
   {
      "order": "3",
      "question": "CAA Charlie",
      "answer":"This is answer three."
   },
   {
      "order": "4",
      "question": "CAA Alpha",
      "answer":"This is answer FOUR."
   },
   {
      "order": "5",
      "question": "CAA Echo",
      "answer":"THIS is answer five."
   }
]